[
    "Avocado",
    "Bacon",
    "Bagel",
    "Baking Powder",
    "Baking Soda",
    "Basil",
    "Bean",
    "Beet",
    "Blueberry",
    "Bread",
    "Broth",
    "Butter",
    "Buttermilk",
    "Capers",
    "Cashew",
    "Carrot",
    "Cauliflower",
    "Celery",
    "Chard",
    "Cheese",
    "Chicken",
    "Chickpea",
    "Chili Sauce",
    "Cilantro",
    "Cinnamon",
    "Clove",
    "Coconut Milk",
    "Coconut Oil",
    "Coconut Sugar",
    "Coffee",
    "Cumin",
    "Curry Paste",
    "Dill",
    "Egg",
    "Fish Sauce",
    "Flaxseed",
    "Flour",
    "Garlic",
    "Ginger",
    "Granola",
    "Hemp",
    "Hot Sauce",
    "Ice Cream",
    "Kale",
    "Lavender",
    "Lemon",
    "Lemon Curd",
    "Lettuce",
    "Lime",
    "Miso Paste",
    "Mushroom",
    "Mustard",
    "Noodles",
    "Nutritional Yeast",
    "Oat",
    "Oatmeal",
    "Oil",
    "Olive",
    "Onion",
    "Parsley",
    "Pasta",
    "Peanut Butter",
    "Pepper",
    "Pizza",
    "Potato",
    "Prune",
    "Quinoa",
    "Rice",
    "Salt",
    "Sauce",
    "Sausage",
    "Seed",
    "Shallot",
    "Sourdough",
    "Soy Sauce",
    "Spinach",
    "Sprouts",
    "Squash",
    "Sugar",
    "Syrup",
    "Tamarind",
    "Tofu",
    "Tomato Paste",
    "Tomato",
    "Vanilla",
    "Vegetable Broth",
    "Vinegar",
    "Water",
    "Yeast",
    "Yogurt"
]
