[
    {
        "name": "Avocado Toast",
        "size": "Main",
        "category": "Sandwich",
        "cost": "Normal",
        "effort": "Easy",
        "time": 5,
        "labels": [],
        "serves": 1,
        "components": [
            {
                "component": "Avocado",
                "quantity": "0.5",
                "unit": "whole",
                "state": "mashed"
            },
            {
                "component": "Bread",
                "quantity": "1",
                "unit": "slice",
                "state": "toasted",
                "variety": "Dave's Killer"
            }
        ],
        "notes": ""
    },
    {
        "name": "Black Bean Burgers",
        "size": "Main",
        "category": "Protein",
        "cost": "Normal",
        "effort": "Medium",
        "time": 30,
        "labels": [
            "Healthy"
        ],
        "serves": 6,
        "components": [],
        "notes": ""
    },
    {
        "name": "Brown Rice",
        "size": "Side",
        "category": "Starch",
        "cost": "Cheap",
        "effort": "Easy",
        "time": 60,
        "labels": [
            "Bulk"
        ],
        "serves": 2,
        "components": [
            {
                "component": "Rice",
                "quantity": "1",
                "unit": "cup",
                "state": "raw",
                "variety": "Brown"
            }
        ],
        "seasoning": [
            {
                "component": "Salt",
                "quantity": "0.5",
                "unit": "tsp",
                "state": "ground"
            },
            {
                "component": "Butter",
                "quantity": "0.5",
                "unit": "tbsp",
                "state": "cold"
            }
        ],
        "notes": ""
    },
    {
        "name": "Buffalo Chickpea Quinoa Burgers",
        "size": "Snack",
        "category": "Protein",
        "cost": "Normal",
        "effort": "Medium",
        "time": 60,
        "labels": [
            "Spicy",
            "Healthy"
        ],
        "serves": 6,
        "components": [
            {
                "component": "Quinoa",
                "quantity": "0.333",
                "unit": "cup",
                "state": "dry",
                "variety": ""
            },
            {
                "component": "Flaxseed",
                "quantity": "1",
                "unit": "tbsp",
                "state": "dry",
                "variety": ""
            },
            {
                "component": "Chickpea",
                "quantity": "1",
                "unit": "tbsp",
                "state": "dry",
                "variety": ""
            },
            {
                "component": "Garlic",
                "quantity": "2",
                "unit": "cloves",
                "state": "minced",
                "variety": ""
            },
            {
                "component": "Shallot",
                "quantity": "0.25",
                "unit": "cup",
                "state": "minced",
                "variety": ""
            },
            {
                "component": "Carrot",
                "quantity": "1",
                "unit": "each",
                "state": "peeled and grated",
                "variety": "large"
            },
            {
                "component": "Oat",
                "quantity": "0.333",
                "unit": "cup",
                "state": "rolled",
                "variety": ""
            },
            {
                "component": "Hemp",
                "quantity": "0.333",
                "unit": "cup",
                "state": "seeds",
                "variety": ""
            },
            {
                "component": "Hot Sauce",
                "quantity": "0.25",
                "unit": "cup",
                "state": "liquid",
                "variety": "Buffalo"
            },
            {
                "component": "Miso Paste",
                "quantity": "2",
                "unit": "tsp",
                "state": "paste",
                "variety": "white"
            },
            {
                "component": "Oil",
                "quantity": "1",
                "unit": "tbsp",
                "state": "liquid",
                "variety": "olive"
            },
            {
                "component": "Bread",
                "quantity": "6",
                "unit": "roll",
                "state": "fresh",
                "variety": "Hamburger Bun"
            }
        ],
        "seasoning": [
            {
                "component": "Salt",
                "quantity": "1.000",
                "unit": "pinch",
                "state": "ground",
                "variety": "sea"
            },
            {
                "component": "Pepper",
                "quantity": "1.000",
                "unit": "pinch",
                "state": "ground",
                "variety": "black"
            }
        ],
        "notes": "1. Cook quinoa according to instructions on the package.\r\n2. In the meantime, stir flaxseed and 3 tablespoons water in a small bowl.\r\n3. Add chickpeas to a food processor, and pulse to a powder-like consistency.\r\n4. In a large bowl, add the ground chickpeas, quinoa, garlic, shallot, carrot, quinoa flakes, hemp seeds, Frank\u2019s, miso paste, and the flax egg. Mix ingredients together and use the back of a fork to mash the mixture until thick and pasty. Season with salt and pepper, to taste. Mix together. With clean hands, press mixture down to form a round.\r\n5. Refrigerate, covered, for 30 minutes. Form into six patties, squeezing and packing the mixture together.\r\n6. Add olive oil to a cast iron grill pan over medium heat. Add burgers and cook for about 4 minutes, flip, and cook for another 3-4 minutes or until exterior is crispy and browned.\r\n7. Serve burgers on bun with \u201cblue cheese\u201d dressing and desired toppings."
    },
    {
        "name": "Bulletproof Coffee",
        "size": "Snack",
        "category": "Drink",
        "cost": "Normal",
        "effort": "Medium",
        "time": 15,
        "labels": [
            "Breakfast",
            "Caffeine"
        ],
        "serves": 1,
        "components": [
            {
                "component": "Coffee",
                "quantity": "1",
                "unit": "tbsp",
                "state": "ground",
                "variety": "Espresso"
            },
            {
                "component": "Butter",
                "quantity": "1",
                "unit": "tbsp",
                "state": "cold",
                "variety": "Grass Fed"
            },
            {
                "component": "Coconut Oil",
                "quantity": "1",
                "unit": "tsp",
                "state": "liquid",
                "variety": "XCT/MCT"
            },
            {
                "component": "Water",
                "quantity": "4",
                "unit": "oz",
                "state": "liquid"
            }
        ],
        "notes": ""
    },
    {
        "name": "Chicken and Rice Soup",
        "size": "Main",
        "category": "Thin Soup",
        "cost": "Normal",
        "effort": "Medium",
        "time": 60,
        "labels": [
            "Bulk"
        ],
        "serves": 8,
        "components": [
            {
                "component": "Onion",
                "quantity": "1",
                "unit": "cup",
                "state": "chopped"
            },
            {
                "component": "Garlic",
                "quantity": "4",
                "unit": "clove",
                "state": "chopped"
            },
            {
                "component": "Celery",
                "quantity": "1",
                "unit": "cup",
                "state": "chopped"
            },
            {
                "component": "Carrot",
                "quantity": "1",
                "unit": "cup",
                "state": "sliced"
            },
            {
                "component": "Mushroom",
                "quantity": "1",
                "unit": "cup",
                "state": "chunked"
            },
            {
                "component": "Broth",
                "quantity": "4",
                "unit": "cup",
                "state": "liquid",
                "variety": "Vegetable"
            },
            {
                "component": "Chicken",
                "quantity": "2",
                "unit": "lb",
                "state": "cubed"
            },
            {
                "component": "Rice",
                "quantity": "2",
                "unit": "cup",
                "state": "cooked",
                "variety": "Jasmine"
            }
        ],
        "seasoning": [
            {
                "component": "Salt",
                "quantity": "2",
                "unit": "tsp",
                "state": "ground"
            },
            {
                "component": "Pepper",
                "quantity": "1",
                "unit": "tsp",
                "state": "ground",
                "variety": "Black"
            },
            {
                "component": "Oil",
                "quantity": "3",
                "unit": "tbsp",
                "state": "bottled",
                "variety": "Vegetable"
            }
        ],
        "notes": ""
    },
    {
        "name": "Chili",
        "size": "Main",
        "category": "Thick Soup",
        "cost": "Cheap",
        "effort": "Easy",
        "time": 120,
        "labels": [
            "Spicy",
            "Bulk"
        ],
        "serves": 6,
        "components": [],
        "notes": ""
    },
    {
        "name": "Coconut Chickpea Curry",
        "size": "Main",
        "category": "Thick Soup",
        "cost": "Cheap",
        "effort": "Medium",
        "time": "45",
        "color": "Orange",
        "labels": [
            "Spicy",
            "Bulk"
        ],
        "serves": 6,
        "components": [
            {
                "component": "Oil",
                "quantity": "2",
                "unit": "tbsp",
                "state": "bottled",
                "variety": "Olive"
            },
            {
                "component": "Onion",
                "quantity": "1.5",
                "unit": "cup",
                "state": "sliced",
                "variety": "Red"
            },
            {
                "component": "Garlic",
                "quantity": "3",
                "unit": "cloves",
                "state": "minced"
            },
            {
                "component": "Carrot",
                "quantity": "2",
                "unit": "cup",
                "state": "halved and sliced"
            },
            {
                "component": "Pepper",
                "quantity": "2",
                "unit": "cup",
                "state": "sliced",
                "variety": "Bell"
            },
            {
                "component": "Squash",
                "quantity": "1",
                "unit": "cup",
                "state": "halved and sliced",
                "variety": "Yellow"
            },
            {
                "component": "Curry Paste",
                "quantity": "3",
                "unit": "tbsp",
                "state": "canned/bottled",
                "variety": "Thai Red"
            },
            {
                "component": "Coconut Milk",
                "quantity": "14",
                "unit": "oz",
                "state": "canned"
            },
            {
                "component": "Vegetable Broth",
                "quantity": ".5",
                "unit": "cup",
                "state": "liquid"
            },
            {
                "component": "Peanut Butter",
                "quantity": ".25",
                "unit": "cup",
                "state": "raw",
                "variety": "Creamy"
            },
            {
                "component": "Ginger",
                "quantity": "1",
                "unit": "inch",
                "state": "peeled and minced"
            },
            {
                "component": "Coconut Sugar",
                "quantity": "2",
                "unit": "tsp",
                "state": "raw"
            },
            {
                "component": "Sauce",
                "quantity": "2",
                "unit": "tsp",
                "state": "liquid",
                "variety": "Tamari",
                "alternate": "Soy"
            },
            {
                "component": "Chickpea",
                "quantity": "15",
                "unit": "oz",
                "state": "canned, rinsed and drained"
            },
            {
                "component": "Spinach",
                "quantity": "2",
                "unit": "cup",
                "state": "raw, packed"
            }
        ],
        "seasoning": [
            {
                "component": "Salt",
                "quantity": ".5",
                "unit": "tsp",
                "state": "ground"
            },
            {
                "component": "Lime Juice",
                "quantity": "1",
                "unit": "tbsp",
                "state": "raw"
            }
        ],
        "notes": "1. Add the olive oil to a large skillet set over medium heat. When hot, add in the onion and cook for about 2 to 3 minutes, until it starts to soften. Stir in the garlic and cook for 30 seconds, until fragrant. Add in the carrots, bell pepper, yellow squash and salt. Cook for about 2 minutes, until the veggies start to soften. Stir in the curry paste until combined. Add the coconut milk, broth, peanut butter, ginger, coconut sugar, soy sauce and chickpeas to the skillet and stir to combine. 2. Increase the heat and bring the mixture to a simmer. Let the mixture simmer gently, reducing the heat as needed and stirring occasionally, for about 10 minutes, until the veggies are all tender to your liking and the sauce has thickened slightly. Remove from the heat and mix in the spinach until wilted. Stir in the lime juice, then taste and add additional salt as needed. Serve as desired! https://cooknourishbliss.com/2019/03/13/coconut-chickpea-curry/"
    },
    {
        "name": "Corn Bread",
        "size": "Side",
        "category": "Starch",
        "cost": "Cheap",
        "effort": "Easy",
        "time": 60,
        "labels": [
            "Spicy",
            "Bulk"
        ],
        "serves": 8,
        "components": [],
        "notes": ""
    },
    {
        "name": "French Toast",
        "size": "Main",
        "category": "Starch",
        "cost": "Cheap",
        "effort": "Easy",
        "time": 30,
        "labels": [
            "Breakfast",
            "Unhealthy"
        ],
        "serves": 4,
        "components": [],
        "notes": ""
    },
    {
        "name": "Fried Bacon",
        "size": "Side",
        "category": "Protein",
        "cost": "Cheap",
        "effort": "Easy",
        "time": 15,
        "labels": [
            "Breakfast",
            "Salty",
            "Unhealthy"
        ],
        "serves": 1,
        "components": [
            {
                "component": "Bacon",
                "quantity": "2",
                "unit": "strip",
                "state": "fried"
            }
        ],
        "enabled": false,
        "notes": ""
    },
    {
        "name": "Fried Egg",
        "size": "Side",
        "category": "Protein",
        "cost": "Cheap",
        "effort": "Easy",
        "time": 5,
        "labels": [
            "Breakfast",
            "Salty"
        ],
        "serves": 1,
        "components": [
            {
                "component": "Egg",
                "quantity": "1",
                "unit": "whole",
                "state": "fried"
            }
        ],
        "notes": ""
    },
    {
        "name": "Frozen Pizza",
        "size": "Main",
        "category": "Pizza",
        "cost": "Normal",
        "effort": "Easy",
        "time": 20,
        "labels": [],
        "serves": 2,
        "components": [
            {
                "component": "Pizza",
                "quantity": "1",
                "unit": "whole",
                "state": "frozen"
            }
        ],
        "notes": ""
    },
    {
        "name": "Gelato",
        "size": "Snack",
        "category": "Dessert",
        "cost": "Expensive",
        "effort": "Easy",
        "time": 0,
        "labels": [
            "Unhealthy"
        ],
        "serves": 1,
        "components": [
            {
                "component": "Ice Cream",
                "quantity": "0.5",
                "unit": "cup",
                "state": "frozen",
                "variety": "Gelato"
            }
        ],
        "notes": ""
    },
    {
        "name": "Halo Top",
        "size": "Snack",
        "category": "Dessert",
        "cost": "Expensive",
        "effort": "Easy",
        "time": 0,
        "labels": [],
        "serves": 1,
        "components": [
            {
                "component": "Ice Cream",
                "quantity": "0.25",
                "unit": "cup",
                "state": "frozen",
                "variety": "Halo Top"
            }
        ],
        "notes": ""
    },
    {
        "name": "Italian Sausage Pizza",
        "size": "Main",
        "category": "Pizza",
        "cost": "Normal",
        "effort": "Medium",
        "time": 60,
        "labels": [],
        "serves": 2,
        "components": [
            {
                "component": "Sourdough",
                "quantity": "3",
                "unit": "inch",
                "state": "balled",
                "variety": "Pizza"
            },
            {
                "component": "Sauce",
                "quantity": "4",
                "unit": "tbsp",
                "state": "canned/fresh",
                "variety": "Tomato"
            },
            {
                "component": "Onion",
                "quantity": "1",
                "unit": "cup",
                "state": "diced",
                "variety": "White"
            },
            {
                "component": "Pepper",
                "quantity": "1",
                "unit": "cup",
                "state": "sliced",
                "variety": "Bell"
            },
            {
                "component": "Mushroom",
                "quantity": "1",
                "unit": "cup",
                "state": "sliced",
                "variety": "Cremini"
            },
            {
                "component": "Garlic",
                "quantity": "4",
                "unit": "clove",
                "state": "minced"
            },
            {
                "component": "Sausage",
                "quantity": "0.5",
                "unit": "cup",
                "state": "crumbled",
                "variety": "Italian"
            },
            {
                "component": "Cheese",
                "quantity": "1",
                "unit": "cup",
                "state": "shredded",
                "variety": "Mozzarella"
            }
        ],
        "seasoning": [
            {
                "component": "Salt",
                "quantity": "0.5",
                "unit": "tsp",
                "state": "ground"
            },
            {
                "component": "Oil",
                "quantity": "1",
                "unit": "tsp",
                "state": "bottled",
                "variety": "Olive"
            },
            {
                "component": "Pepper",
                "quantity": "1",
                "unit": "tsp",
                "state": "ground",
                "variety": "Cayenne"
            }
        ],
        "notes": ""
    },
    {
        "name": "Kale Salad",
        "size": "Side",
        "category": "Salad",
        "cost": "Normal",
        "effort": "Easy",
        "time": 30,
        "labels": [
            "Healthy",
            "Bulk"
        ],
        "serves": 4,
        "components": [],
        "notes": ""
    },
    {
        "name": "Lavender Scones",
        "size": "Snack",
        "category": "Starch",
        "cost": "Cheap",
        "effort": "Medium",
        "time": 45,
        "labels": [],
        "serves": 16,
        "components": [
            {
                "component": "Flour",
                "quantity": "3",
                "unit": "cup",
                "state": "powder",
                "variety": "all-purpose white"
            },
            {
                "component": "Sugar",
                "quantity": "0.75",
                "unit": "cup",
                "state": "granulated",
                "variety": ""
            },
            {
                "component": "Baking Powder",
                "quantity": "1",
                "unit": "tbsp",
                "state": "powder",
                "variety": ""
            },
            {
                "component": "Lavender",
                "quantity": "1",
                "unit": "tsp",
                "state": "dried buds",
                "variety": ""
            },
            {
                "component": "Baking Soda",
                "quantity": "0.5",
                "unit": "tsp",
                "state": "powder",
                "variety": ""
            },
            {
                "component": "Butter",
                "quantity": "0.75",
                "unit": "cup",
                "state": "chilled and cut into 1/4\" cubes",
                "variety": "unsalted"
            },
            {
                "component": "Buttermilk",
                "quantity": "1",
                "unit": "cup",
                "state": "liquid",
                "variety": ""
            },
            {
                "component": "Lemon",
                "quantity": "2",
                "unit": "tsp",
                "state": "zest, finely grated",
                "variety": ""
            },
            {
                "component": "Vanilla",
                "quantity": "1",
                "unit": "tsp",
                "state": "liquid extract",
                "variety": ""
            }
        ],
        "seasoning": [],
        "notes": "1. Arrange racks in upper and lower thirds of oven; preheat to 425\u00b0F. Line 2 baking sheets with parchment paper. Whisk 3 cups flour and next 5 ingredients in a large bowl. Add butter; rub in with your fingers until mixture resembles coarse meal.\r\n2. Whisk 1 cup buttermilk, zest, and vanilla in a small bowl. Add wet ingredients to dry ingredients. Stir until shaggy dough forms.\r\n3. Transfer to a lightly floured surface; knead until dough forms, about 5 turns. Pat into a 10x6\" rectangle. Halve dough lengthwise. Cut each half crosswise into 4 squares. Cut each square diagonally in half into 2 triangles. Divide between baking sheets. Brush with 2 tablespoons buttermilk. Sprinkle with sanding sugar.\r\n4. Bake until scones are golden and a tester inserted into the center comes out clean, 13-15 minutes. Transfer to wire racks; let cool.\r\n5. Serve warm or at room temperature with lemon curd. "
    },
    {
        "name": "Pad Thai",
        "size": "Main",
        "category": "Pasta",
        "cost": "Normal",
        "effort": "Medium",
        "time": 60,
        "labels": [
            "Spicy",
            "Salty"
        ],
        "serves": 6,
        "components": [
            {
                "component": "Noodles",
                "quantity": "8",
                "unit": "oz",
                "state": "dry",
                "variety": "Rice"
            },
            {
                "component": "Oil",
                "quantity": "2",
                "unit": "tbsp",
                "state": "Peanut"
            },
            {
                "component": "Garlic",
                "quantity": "4",
                "unit": "clove",
                "state": "minced"
            },
            {
                "component": "Tofu",
                "quantity": "8",
                "unit": "oz",
                "state": "cubed"
            },
            {
                "component": "Egg",
                "quantity": "2",
                "unit": "whole",
                "state": "raw"
            },
            {
                "component": "Sprouts",
                "quantity": "1",
                "unit": "cup",
                "state": "raw",
                "variety": "Bean"
            },
            {
                "component": "Pepper",
                "quantity": "1",
                "unit": "cup",
                "state": "sliced",
                "variety": "Bell"
            },
            {
                "component": "Fish Sauce",
                "quantity": "3",
                "unit": "tbsp",
                "state": "bottled"
            },
            {
                "component": "Soy Sauce",
                "quantity": "1",
                "unit": "tbsp",
                "state": "bottled"
            },
            {
                "component": "Sugar",
                "quantity": "5",
                "unit": "tbsp",
                "state": "raw",
                "variety": "Brown"
            },
            {
                "component": "Tamarind",
                "quantity": "2",
                "unit": "tbsp",
                "state": "paste",
                "alternate": "Rice Vinegar"
            },
            {
                "component": "Chili Sauce",
                "quantity": "1",
                "unit": "tbsp",
                "state": "bottled",
                "variety": "Sriracha"
            },
            {
                "component": "Peanut Butter",
                "quantity": "2",
                "unit": "tbsp",
                "state": "raw",
                "variety": "Creamy"
            }
        ],
        "seasoning": [
            {
                "component": "Lime",
                "quantity": "2",
                "unit": "whole",
                "state": "wedged"
            },
            {
                "component": "Cilantro",
                "quantity": "0.5",
                "unit": "cup",
                "state": "leaves"
            }
        ],
        "notes": ""
    },
    {
        "name": "Pancakes",
        "size": "Main",
        "category": "Starch",
        "cost": "Cheap",
        "effort": "Easy",
        "time": 30,
        "labels": [
            "Breakfast",
            "Unhealthy"
        ],
        "serves": 4,
        "components": [],
        "notes": ""
    },
    {
        "name": "Pasta",
        "size": "Starch",
        "category": "Pasta",
        "cost": "Cheap",
        "effort": "Easy",
        "time": 15,
        "labels": [
            "Bulk"
        ],
        "serves": 2,
        "components": [
            {
                "component": "Pasta",
                "quantity": "6",
                "unit": "oz",
                "state": "dry"
            }
        ],
        "notes": ""
    },
    {
        "name": "Peanut Butter Bagel",
        "size": "Snack",
        "category": "Sandwich",
        "cost": "Cheap",
        "effort": "Easy",
        "time": 5,
        "labels": [
            "Breakfast",
            "Salty"
        ],
        "serves": 1,
        "components": [
            {
                "component": "Peanut Butter",
                "quantity": "1",
                "unit": "tbsp",
                "state": "raw",
                "variety": "Crunchy"
            },
            {
                "component": "Bagel",
                "quantity": "1",
                "unit": "whole",
                "state": "toasted",
                "variety": "Dave's Killer"
            }
        ],
        "notes": ""
    },
    {
        "name": "Peanut Butter Toast",
        "size": "Snack",
        "category": "Sandwich",
        "cost": "Cheap",
        "effort": "Easy",
        "time": 5,
        "labels": [
            "Breakfast",
            "Salty"
        ],
        "serves": 1,
        "components": [
            {
                "component": "Peanut Butter",
                "quantity": "1",
                "unit": "tbsp",
                "state": "raw",
                "variety": "Crunchy"
            },
            {
                "component": "Bread",
                "quantity": "1",
                "unit": "slice",
                "state": "toasted",
                "variety": "Dave's Killer"
            }
        ],
        "notes": ""
    },
    {
        "name": "Potato Chips",
        "size": "Snack",
        "category": "Starch",
        "cost": "Cheap",
        "effort": "Medium",
        "time": 60,
        "labels": [
            "Salty",
            "Unhealthy"
        ],
        "serves": 1,
        "components": [
            {
                "component": "Potato",
                "quantity": "2",
                "unit": "large",
                "state": "very thinly sliced",
                "variety": "Russet"
            }
        ],
        "seasoning": [
            {
                "component": "Salt",
                "quantity": "1.000",
                "unit": "each",
                "state": "raw",
                "variety": ""
            }
        ],
        "notes": "Slice the potatoes, make sure to dry them well, and cook at 375\u00b0 F until crispy golden brown. Immediately after pulling the chips out of the fryer, shake off excess oil and plate on paper towels. Sprinkle with sea salt and serve hot."
    },
    {
        "name": "Potato Curry",
        "size": "Main",
        "category": "Thick Soup",
        "cost": "Cheap",
        "effort": "Medium",
        "time": 45,
        "color": "Orange",
        "labels": [
            "Spicy",
            "Bulk"
        ],
        "serves": 6,
        "components": [
            {
                "component": "Onion",
                "quantity": "1.5",
                "unit": "cup",
                "state": "diced",
                "variety": "Yellow"
            },
            {
                "component": "Potato",
                "quantity": "2",
                "unit": "lb",
                "state": "cubed",
                "variety": "Yellow"
            },
            {
                "component": "Chickpea",
                "quantity": "15",
                "unit": "oz",
                "state": "canned, rinsed and drained"
            },
            {
                "component": "Spinach",
                "quantity": "1",
                "unit": "cup",
                "state": "raw"
            },
            {
                "component": "Oil",
                "quantity": "2",
                "unit": "tbsp",
                "state": "bottled",
                "variety": "Vegetable"
            },
            {
                "component": "Garlic",
                "quantity": "3",
                "unit": "cloves",
                "state": "minced"
            },
            {
                "component": "Ginger",
                "quantity": "1",
                "unit": "inch",
                "state": "peeled and minced"
            },
            {
                "component": "Coconut Milk",
                "quantity": "14",
                "unit": "oz",
                "state": "canned"
            },
            {
                "component": "Tomato",
                "quantity": "14.5",
                "unit": "oz",
                "state": "canned, diced"
            }
        ],
        "seasoning": [
            {
                "component": "Curry",
                "quantity": "2",
                "unit": "tsp",
                "state": "ground"
            },
            {
                "component": "Garam Masala",
                "quantity": "1",
                "unit": "tsp",
                "state": "ground"
            },
            {
                "component": "Cumin",
                "quantity": "1",
                "unit": "tsp",
                "state": "ground"
            },
            {
                "component": "Turmeric",
                "quantity": "1",
                "unit": "tsp",
                "state": "ground"
            },
            {
                "component": "Coriander",
                "quantity": "1",
                "unit": "tsp",
                "state": "ground"
            },
            {
                "component": "Pepper",
                "quantity": "1",
                "unit": "tsp",
                "state": "ground",
                "variety": "Habanero"
            },
            {
                "component": "Salt",
                "quantity": "1",
                "unit": "tsp",
                "state": "ground"
            }
        ],
        "notes": ""
    },
    {
        "name": "Purple Power Bowl",
        "size": "Meal",
        "category": "Starch",
        "cost": "Normal",
        "effort": "Medium",
        "time": 60,
        "labels": [
            "Healthy"
        ],
        "serves": 4,
        "components": [
            {
                "component": "Cauliflower",
                "quantity": "1",
                "unit": "head",
                "state": "chopped into small florets",
                "variety": "Purple"
            },
            {
                "component": "Potato",
                "quantity": "8",
                "unit": "whole",
                "state": "sliced",
                "variety": "Purple Fingerling"
            },
            {
                "component": "Onion",
                "quantity": "1.000",
                "unit": "whole",
                "state": "sliced",
                "variety": "Red"
            },
            {
                "component": "Oil",
                "quantity": "1",
                "unit": "tbsp",
                "state": "liquid",
                "variety": "EVOO"
            },
            {
                "component": "Bean",
                "quantity": "0.75",
                "unit": "cup",
                "state": "dry",
                "variety": "Green Lentil"
            },
            {
                "component": "Beet",
                "quantity": "1",
                "unit": "whole",
                "state": "shredded or thinly sliced",
                "variety": "Red"
            },
            {
                "component": "Kale",
                "quantity": "2",
                "unit": "cup",
                "state": "chopped leaves",
                "variety": "Purple"
            },
            {
                "component": "Prune",
                "quantity": "16",
                "unit": "whole pitted",
                "state": "halved",
                "variety": "California"
            }
        ],
        "seasoning": [
            {
                "component": "Salt",
                "quantity": "0.5",
                "unit": "tsp",
                "state": "ground",
                "variety": "Kosher"
            },
            {
                "component": "Pepper",
                "quantity": "0.5",
                "unit": "tsp",
                "state": "ground",
                "variety": "Black"
            },
            {
                "component": "Cilantro",
                "quantity": "0.25",
                "unit": "cup",
                "state": "leaves",
                "variety": ""
            }
        ],
        "notes": "Preheat the oven to 425\u00c2\u00b0F. Spread the cauliflower florets, purple potatoes, and sliced onions out over a baking sheet. Drizzle with olive oil and toss to coat. Season with salt and black pepper and roast in the oven for 20 minutes until the vegetables are tender and golden brown on the edges.\n\nMeanwhile, cover the lentils with 3 cups water in a saucepan and bring to a boil. Lower the heat and cook gently until soft, about 20 minutes. Drain the excess cooking liquid and set aside.\n\nDivide ingredients into four serving bowls. To each bowl add a serving of the lentils, roasted cauliflower, potatoes, and onions and arrange some chopped kale, beet slices, and California prunes around the bowl. Drizzle vinaigrette or other sauce over each bowl. Garnish with cilantro and enjoy!"
    },
    {
        "name": "Quick Oatmeal",
        "size": "Snack",
        "category": "Thick Soup",
        "cost": "Cheap",
        "effort": "Easy",
        "time": 5,
        "labels": [
            "Breakfast"
        ],
        "serves": 1,
        "components": [
            {
                "component": "Oatmeal",
                "quantity": "0.5",
                "unit": "cup",
                "state": "raw",
                "variety": "Quick-Cooking"
            },
            {
                "component": "Water",
                "quantity": "1",
                "unit": "cup",
                "state": "liquid"
            },
            {
                "component": "Blueberry",
                "quantity": "2",
                "unit": "tbsp",
                "state": "fresh/frozen"
            },
            {
                "component": "Peanut Butter",
                "quantity": "1",
                "unit": "tbsp",
                "state": "butter",
                "variety": "Creamy"
            }
        ],
        "notes": ""
    },
    {
        "name": "Red Beans",
        "size": "Main",
        "category": "Thick Soup",
        "cost": "Normal",
        "effort": "Easy",
        "time": 120,
        "labels": [
            "Spicy",
            "Bulk"
        ],
        "serves": 8,
        "components": [
            {
                "component": "Bean",
                "quantity": "4",
                "unit": "cup",
                "state": "raw sprouted",
                "variety": "Kidney"
            },
            {
                "component": "Oil",
                "quantity": "2",
                "unit": "tbsp",
                "state": "Vegetable"
            },
            {
                "component": "Broth",
                "quantity": "3",
                "unit": "cup",
                "state": "liquid",
                "variety": "Vegetable"
            },
            {
                "component": "Onion",
                "quantity": "1",
                "unit": "cup",
                "state": "chopped",
                "variety": "Sweet"
            },
            {
                "component": "Garlic",
                "quantity": "4",
                "unit": "clove",
                "state": "minced"
            },
            {
                "component": "Celery",
                "quantity": "2",
                "unit": "stalk",
                "state": "chopped"
            },
            {
                "component": "Pepper",
                "quantity": "1",
                "unit": "cup",
                "state": "sliced",
                "variety": "Bell"
            },
            {
                "component": "Tomato Paste",
                "quantity": "2",
                "unit": "tbsp",
                "state": "paste"
            }
        ],
        "seasoning": [
            {
                "component": "Salt",
                "quantity": "1",
                "unit": "tsp",
                "state": "ground",
                "variety": "Kosher"
            },
            {
                "component": "Pepper",
                "quantity": "1",
                "unit": "tsp",
                "state": "fresh ground",
                "variety": "Black"
            },
            {
                "component": "Pepper",
                "quantity": "1",
                "unit": "tsp",
                "state": "powder",
                "variety": "Chili"
            },
            {
                "component": "Bay Leaf",
                "quantity": "1",
                "unit": "whole",
                "state": "leaf"
            },
            {
                "component": "Pepper Sauce",
                "quantity": "2",
                "unit": "tsp",
                "state": "liquid",
                "variety": "Louisiana"
            },
            {
                "component": "Seasoning",
                "quantity": "1.5",
                "unit": "tsp",
                "state": "powder",
                "variety": "Cajun"
            },
            {
                "component": "Parsley",
                "quantity": "2",
                "unit": "tbsp",
                "state": "fresh chopped"
            }
        ],
        "notes": ""
    },
    {
        "name": "Spiced Apple Cider Vinaigrette",
        "size": "Side",
        "category": "Sauce",
        "cost": "Normal",
        "effort": "Medium",
        "time": 15,
        "labels": [],
        "serves": 4,
        "components": [
            {
                "component": "Vinegar",
                "quantity": "3",
                "unit": "tbsp",
                "state": "liquid",
                "variety": "apple cider"
            },
            {
                "component": "Oil",
                "quantity": "0.25",
                "unit": "cup",
                "state": "liquid",
                "variety": "extra-virgin olive"
            },
            {
                "component": "Syrup",
                "quantity": "1",
                "unit": "tsp",
                "state": "liquid",
                "variety": "maple"
            },
            {
                "component": "Mustard",
                "quantity": "1",
                "unit": "tsp",
                "state": "paste",
                "variety": "Dijon"
            },
            {
                "component": "Cumin",
                "quantity": "0.25",
                "unit": "tsp",
                "state": "ground",
                "variety": ""
            },
            {
                "component": "Clove",
                "quantity": "0.125",
                "unit": "tsp",
                "state": "ground",
                "variety": ""
            },
            {
                "component": "Cinnamon",
                "quantity": "0.25",
                "unit": "tsp",
                "state": "ground",
                "variety": ""
            },
            {
                "component": "Prune",
                "quantity": "4",
                "unit": "whole",
                "state": "whole pitted",
                "variety": "California"
            }
        ],
        "seasoning": [
            {
                "component": "Salt",
                "quantity": "0.5",
                "unit": "tsp",
                "state": "ground",
                "variety": "kosher"
            },
            {
                "component": "Pepper",
                "quantity": "0.5",
                "unit": "tsp",
                "state": "ground",
                "variety": "black"
            },
            {
                "component": "Water",
                "quantity": "0.5",
                "unit": "cup",
                "state": "liquid",
                "variety": ""
            }
        ],
        "notes": "In a blender, combine the apple cider vinegar, olive oil, maple syrup, Dijon mustard, cumin, cloves, cinnamon, 4 whole prunes, salt, and pepper and blend until smooth and creamy. Thin with a \u00bc cup water to loosen consistency if dressing is too thick."
    },
    {
        "name": "Spiced Basmati Rice",
        "size": "Side",
        "category": "Starch",
        "cost": "Cheap",
        "effort": "Easy",
        "time": 30,
        "labels": [
            "Bulk"
        ],
        "serves": 2,
        "components": [
            {
                "component": "Rice",
                "quantity": "1",
                "unit": "cup",
                "state": "raw",
                "variety": "Basmati"
            }
        ],
        "seasoning": [
            {
                "component": "Salt",
                "quantity": "0.5",
                "unit": "tsp",
                "state": "ground"
            },
            {
                "component": "Oil",
                "quantity": "2",
                "unit": "tsp",
                "state": "bottled",
                "variety": "Coconut"
            },
            {
                "component": "Curry",
                "quantity": ".25",
                "unit": "tsp",
                "state": "ground"
            },
            {
                "component": "Cumin",
                "quantity": ".125",
                "unit": "tsp",
                "state": "ground"
            },
            {
                "component": "Turmeric",
                "quantity": ".125",
                "unit": "tsp",
                "state": "ground"
            }
        ],
        "notes": ""
    },
    {
        "name": "Tacos",
        "size": "Main",
        "category": "Sandwich",
        "cost": "Cheap",
        "effort": "Medium",
        "time": 30,
        "labels": [
            "Spicy",
            "Salty"
        ],
        "serves": 2,
        "components": [],
        "notes": ""
    },
    {
        "name": "Toasted Sesame Basmati Rice",
        "size": "Side",
        "category": "Starch",
        "cost": "Cheap",
        "effort": "Easy",
        "time": 30,
        "labels": [
            "Bulk"
        ],
        "serves": 2,
        "components": [
            {
                "component": "Rice",
                "quantity": "1",
                "unit": "cup",
                "state": "raw",
                "variety": "Basmati"
            }
        ],
        "seasoning": [
            {
                "component": "Salt",
                "quantity": "0.5",
                "unit": "tsp",
                "state": "ground"
            },
            {
                "component": "Oil",
                "quantity": "1",
                "unit": "tsp",
                "state": "bottled",
                "variety": "Toasted Sesame"
            }
        ],
        "notes": ""
    },
    {
        "name": "Toasted Sesame Jasmine Rice",
        "size": "Side",
        "category": "Starch",
        "cost": "Cheap",
        "effort": "Easy",
        "time": 30,
        "labels": [
            "Bulk"
        ],
        "serves": 2,
        "components": [
            {
                "component": "Rice",
                "quantity": "1",
                "unit": "cup",
                "state": "raw",
                "variety": "Jasmine"
            }
        ],
        "seasoning": [
            {
                "component": "Salt",
                "quantity": "0.5",
                "unit": "tsp",
                "state": "ground"
            },
            {
                "component": "Oil",
                "quantity": "2",
                "unit": "tsp",
                "state": "bottled",
                "variety": "Toasted Sesame"
            }
        ],
        "notes": ""
    },
    {
        "name": "Vegan Blue Cheese Dressing",
        "size": "Side",
        "category": "Thin Soup",
        "cost": "Normal",
        "effort": "Medium",
        "time": 35,
        "labels": [],
        "serves": 6,
        "components": [
            {
                "component": "Cashew",
                "quantity": "1",
                "unit": "cup",
                "state": "soaked",
                "variety": ""
            },
            {
                "component": "Vinegar",
                "quantity": "2",
                "unit": "tbsp",
                "state": "liquid",
                "variety": "white"
            },
            {
                "component": "Nutritional Yeast",
                "quantity": "2",
                "unit": "tbsp",
                "state": "flakes",
                "variety": ""
            },
            {
                "component": "Lemon",
                "quantity": "2",
                "unit": "tbsp",
                "state": "juice",
                "variety": ""
            },
            {
                "component": "Miso Paste",
                "quantity": "1",
                "unit": "tsp",
                "state": "paste",
                "variety": "white"
            },
            {
                "component": "Garlic",
                "quantity": "0.5",
                "unit": "tsp",
                "state": "powder",
                "variety": ""
            },
            {
                "component": "Onion",
                "quantity": "1",
                "unit": "tsp",
                "state": "powder",
                "variety": ""
            },
            {
                "component": "Dill",
                "quantity": "0.25",
                "unit": "tsp",
                "state": "fresh",
                "variety": ""
            },
            {
                "component": "Salt",
                "quantity": "1",
                "unit": "tsp",
                "state": "ground",
                "variety": "sea"
            },
            {
                "component": "Water",
                "quantity": "0.25",
                "unit": "cup",
                "state": "liquid",
                "variety": ""
            }
        ],
        "seasoning": [],
        "notes": "Soak cashews in 1.25 cups of water for at least 30 minutes. Add soaked cashews, white vinegar, nutritional yeast, lemon juice, miso paste, garlic powder, onion powder, dill weed, and salt to a food processor or blender and puree on high speed. While running, slowly add water to achieve desired smooth and creamy consistency."
    },
    {
        "name": "Vegan Ni\u00e7oise Salad",
        "size": "Meal",
        "category": "Salad",
        "cost": "Normal",
        "effort": "Medium",
        "time": 20,
        "labels": [
            "Healthy"
        ],
        "serves": 2,
        "components": [
            {
                "component": "Kale",
                "quantity": "0.5",
                "unit": "cup",
                "state": "raw",
                "variety": ""
            },
            {
                "component": "Lettuce",
                "quantity": "0.5",
                "unit": "cup",
                "state": "raw",
                "variety": ""
            },
            {
                "component": "Chard",
                "quantity": "0.5",
                "unit": "cup",
                "state": "raw",
                "variety": "Swiss"
            },
            {
                "component": "Spinach",
                "quantity": "0.5",
                "unit": "cup",
                "state": "raw",
                "variety": ""
            },
            {
                "component": "Potato",
                "quantity": "2",
                "unit": "each",
                "state": "boiled until tender",
                "variety": "Yukon Gold"
            },
            {
                "component": "Bean",
                "quantity": "0.5",
                "unit": "cup",
                "state": "blanched",
                "variety": "Green"
            },
            {
                "component": "Tomato",
                "quantity": "0.5",
                "unit": "cup",
                "state": "halved",
                "variety": "Grape"
            },
            {
                "component": "Capers",
                "quantity": "1",
                "unit": "tbsp",
                "state": "standard",
                "variety": ""
            },
            {
                "component": "Olive",
                "quantity": "1",
                "unit": "tbsp",
                "state": "halved or chopped",
                "variety": "Kalamata"
            },
            {
                "component": "Tofu",
                "quantity": "0.5",
                "unit": "cup",
                "state": "cooked",
                "variety": "garlic and basil"
            }
        ],
        "seasoning": [],
        "notes": "Place the greens to a large shallow salad bowl, then arrange the remaining ingredients over the top.\r\nDress the salad with 2 tablespoons of dressing, or to taste. Refrigerate the remaining dressing and store in an airtight container for up to one week.\r\nRecipe variations and additions: Use canned tuna or salmon in place of the tofu. Add chopped nuts or seeds for extra crunch and healthy fats. Swap the potatoes, chickpeas, roasted sweet potatoes, quinoa or any cooked whole grain.\r\nhttp://cjnutrition.com/recipe/vegan-nicoise-salad/"
    },
    {
        "name": "Vegetable Soup",
        "size": "Main",
        "category": "Thin Soup",
        "cost": "Cheap",
        "effort": "Medium",
        "time": 60,
        "labels": [
            "Healthy",
            "Bulk"
        ],
        "serves": 8,
        "components": [
            {
                "component": "Onion",
                "quantity": "1",
                "unit": "cup",
                "state": "chopped"
            },
            {
                "component": "Garlic",
                "quantity": "4",
                "unit": "clove",
                "state": "chopped"
            },
            {
                "component": "Celery",
                "quantity": "1",
                "unit": "cup",
                "state": "chopped"
            },
            {
                "component": "Carrot",
                "quantity": "1",
                "unit": "cup",
                "state": "sliced"
            },
            {
                "component": "Pepper",
                "quantity": "1",
                "unit": "cup",
                "state": "sliced",
                "variety": "Bell"
            },
            {
                "component": "Mushroom",
                "quantity": "1",
                "unit": "cup",
                "state": "chunked"
            },
            {
                "component": "Potato",
                "quantity": "2",
                "unit": "lb",
                "state": "cubed",
                "variety": "White"
            },
            {
                "component": "Broth",
                "quantity": "4",
                "unit": "cup",
                "state": "liquid",
                "variety": "Vegetable"
            }
        ],
        "seasoning": [
            {
                "component": "Salt",
                "quantity": "2",
                "unit": "tsp",
                "state": "ground"
            },
            {
                "component": "Pepper",
                "quantity": "1",
                "unit": "tsp",
                "state": "ground",
                "variety": "Black"
            },
            {
                "component": "Oil",
                "quantity": "3",
                "unit": "tbsp",
                "state": "bottled",
                "variety": "Vegetable"
            }
        ],
        "notes": ""
    },
    {
        "name": "Waffles",
        "size": "Main",
        "category": "Starch",
        "cost": "Cheap",
        "effort": "Easy",
        "time": 30,
        "labels": [
            "Breakfast",
            "Unhealthy"
        ],
        "serves": 4,
        "components": [],
        "notes": ""
    },
    {
        "name": "White Wine Dijon Vinaigrette",
        "size": "Side",
        "category": "Sauce",
        "cost": "Cheap",
        "effort": "Easy",
        "time": 5,
        "labels": [
            "Salty"
        ],
        "serves": 2,
        "components": [
            {
                "component": "Shallot",
                "quantity": "1",
                "unit": "tbsp",
                "state": "minced",
                "variety": ""
            },
            {
                "component": "Garlic",
                "quantity": "1",
                "unit": "tsp",
                "state": "chopped",
                "variety": ""
            },
            {
                "component": "Mustard",
                "quantity": "1",
                "unit": "tsp",
                "state": "raw",
                "variety": "Dijon"
            },
            {
                "component": "Vinegar",
                "quantity": "2",
                "unit": "tbsp",
                "state": "liquid",
                "variety": "white wine"
            },
            {
                "component": "Oil",
                "quantity": "0.333",
                "unit": "cup",
                "state": "liquid",
                "variety": "olive"
            }
        ],
        "seasoning": [],
        "notes": "Add the dressing ingredients to a jar with a lid and shake until well combined (or use a bowl and whisk together). http://cjnutrition.com/recipe/vegan-nicoise-salad/"
    },
    {
        "name": "Yogurt and Granola",
        "size": "Snack",
        "category": "Thick Soup",
        "cost": "Normal",
        "effort": "Easy",
        "time": 5,
        "labels": [
            "Breakfast",
            "Healthy"
        ],
        "serves": 1,
        "components": [
            {
                "component": "Yogurt",
                "quantity": ".5",
                "unit": "cup",
                "state": "liquid",
                "variety": "Greek"
            },
            {
                "component": "Granola",
                "quantity": ".25",
                "unit": "cup",
                "state": "granola"
            },
            {
                "component": "Blueberry",
                "quantity": "2",
                "unit": "tbsp",
                "state": "fresh/frozen"
            },
            {
                "component": "Syrup",
                "quantity": "1",
                "unit": "tbsp",
                "state": "liquid",
                "variety": "Agave"
            }
        ],
        "notes": ""
    }
]